Datos: Entendimiento y Análisis Exploratorio
…
Ahora, hacemos el left join de los datos de entrenamiento con el catálogo de artículos y con el de tiendas. Análogamente hacemos un left join con el ID de la dupla (tienda,artículo)

# Se unen las distintas tablas 
datos_train<-left_join(train,datos_items,by='item_id')%>%
  left_join(shops,by='shop_id')%>%
  left_join(duplas,by=c('item_id','shop_id'))

# Se vuelve a leer el tipo de cada dato. 
readr::type_convert(datos_train)

## # A tibble: 2,935,849 x 11
##    date  date_block_num shop_id item_id item_price item_cnt_day item_name
##    <chr>          <int>   <int>   <int>      <dbl>        <dbl> <chr>    
##  1 02.0~              0      59   22154       999             1 Scene 20~
##  2 03.0~              0      25    2552       899             1 DEEP PUR~
##  3 05.0~              0      25    2552       899            -1 DEEP PUR~
##  4 06.0~              0      25    2554      1709.            1 DEEP PUR~
##  5 15.0~              0      25    2555      1099             1 DEEP PUR~
##  6 10.0~              0      25    2564       349             1 DEEP PUR~
##  7 02.0~              0      25    2565       549             1 DEEP PUR~
##  8 04.0~              0      25    2572       239             1 DEFTONES~
##  9 11.0~              0      25    2572       299             1 DEFTONES~
## 10 03.0~              0      25    2573       299             3 DEL REY ~
## # ... with 2,935,839 more rows, and 4 more variables:
## #   item_category_id <int>, item_category_name <chr>, shop_name <chr>,
## #   ID <int>
…
