…
    ## Observations: 22,170
    ## Variables: 4
    ## $ item_id            <int> 0, 1, 2, 3, 4, 5, 6, 7, 8, 9, 10, 11, 12, 1...
    ## $ item_name          <chr> "! ВО ВЛАСТИ НАВАЖДЕНИЯ (ПЛАСТ.)         D"...
    ## $ item_category_id   <int> 40, 76, 40, 40, 40, 40, 40, 40, 40, 40, 40,...
    ## $ item_category_name <chr> "Кино - DVD", "Программы - Для дома и офиса...

El catálogo de items tiene 22,170 renglones que equivalen a los distintos artículos que tiene la tienda.

``` r
datos_items %>% select(item_name) %>% unique()
```

    ## # A tibble: 22,170 x 1
    ##    item_name                                                           
    ##    <chr>                                                               
    ##  1 ! ВО ВЛАСТИ НАВАЖДЕНИЯ (ПЛАСТ.)         D                           
    ##  2 !ABBYY FineReader 12 Professional Edition Full [PC, Цифровая версия]
    ##  3 ***В ЛУЧАХ СЛАВЫ   (UNV)                    D                       
    ##  4 ***ГОЛУБАЯ ВОЛНА  (Univ)                      D                     
    ##  5 ***КОРОБКА (СТЕКЛО)                       D                         
    ##  6 ***НОВЫЕ АМЕРИКАНСКИЕ ГРАФФИТИ  (UNI)             D                 
    ##  7 ***УДАР ПО ВОРОТАМ (UNI)               D                            
    ##  8 ***УДАР ПО ВОРОТАМ-2 (UNI)               D                          
    ##  9 ***ЧАЙ С МУССОЛИНИ                     D                            
    ## 10 ***ШУГАРЛЭНДСКИЙ ЭКСПРЕСС (UNI)             D                       
    ## # ... with 22,160 more rows

En la tienda existen 84 categorías de artículos.

``` r
datos_items %>% select(item_category_name) %>% unique()
```

    ## # A tibble: 84 x 1
    ##    item_category_name                  
    ##    <chr>                               
    ##  1 Кино - DVD                          
    ##  2 Программы - Для дома и офиса (Цифра)
    ##  3 Музыка - CD локального производства 
    ##  4 Игры - PS3                          
    ##  5 Игры PC - Стандартные издания       
    ##  6 Игры - XBOX 360                     
    ##  7 Кино - Blu-Ray                      
    ##  8 Кино - Коллекционное                
    ##  9 Музыка - MP3                        
    ## 10 Книги - Аудиокниги                  
    ## # ... with 74 more rows
…
    ## Observations: 60
    ## Variables: 2
    ## $ shop_name <chr> "!Якутск Орджоникидзе, 56 фран", "!Якутск ТЦ \"Центр...
    ## $ shop_id   <int> 0, 1, 2, 3, 4, 5, 6, 7, 8, 9, 10, 11, 12, 13, 14, 15...

El catálogo de tiene 60 tiendas distintas.

``` r
shops %>% select(shop_name) %>% unique()
```

    ## # A tibble: 60 x 1
    ##    shop_name                         
    ##    <chr>                             
    ##  1 !Якутск Орджоникидзе, 56 фран     
    ##  2 "!Якутск ТЦ \"Центральный\" фран" 
    ##  3 "Адыгея ТЦ \"Мега\""              
    ##  4 "Балашиха ТРК \"Октябрь-Киномир\""
    ##  5 "Волжский ТЦ \"Волга Молл\""      
    ##  6 "Вологда ТРЦ \"Мармелад\""        
    ##  7 Воронеж (Плехановская, 13)        
    ##  8 "Воронеж ТРЦ \"Максимир\""        
    ##  9 "Воронеж ТРЦ Сити-Парк \"Град\""  
    ## 10 Выездная Торговля                 
    ## # ... with 50 more rows
…
